{
  "files": {
    "main.css": "./static/css/main.8db9de6b.css",
    "main.js": "./static/js/main.95220984.js",
    "index.html": "./index.html",
    "main.8db9de6b.css.map": "./static/css/main.8db9de6b.css.map",
    "main.95220984.js.map": "./static/js/main.95220984.js.map"
  },
  "entrypoints": [
    "static/css/main.8db9de6b.css",
    "static/js/main.95220984.js"
  ]
}